…
## Basic example

`foieGras` is intended to be as easy to use as possible. Here’s an
example showing how to quality-control Argos tracking data and infer a
behavioural index along the estimated animal tracks:

``` r
library(tidyverse)
library(foieGras)

ellies
#> # A tibble: 288 x 5
#>    id        date                lc      lon   lat
#>    <chr>     <dttm>              <fct> <dbl> <dbl>
#>  1 ct36-F-09 2009-02-10 19:42:44 A      70.6 -49.7
#>  2 ct36-F-09 2009-02-11 07:56:36 A      70.2 -50.2
#>  3 ct36-F-09 2009-02-12 01:53:07 A      70.1 -51.1
#>  4 ct36-F-09 2009-02-12 19:06:55 B      69.5 -52.0
#>  5 ct36-F-09 2009-02-13 12:13:19 B      71.0 -53.1
#>  6 ct36-F-09 2009-02-14 01:10:58 B      70.1 -53.4
#>  7 ct36-F-09 2009-02-14 20:47:58 B      70.3 -54.3
#>  8 ct36-F-09 2009-02-15 15:32:13 A      70.3 -55.4
#>  9 ct36-F-09 2009-02-16 05:28:22 B      70.9 -55.9
#> 10 ct36-F-09 2009-02-16 20:29:14 B      70.9 -56.7
#> # … with 278 more rows
…
