join an mpm-estimated behavioural index to ssm-predicted locations — join • foieGras
…
## join predicted values as an un-projected tibble
xsm <- join(xs, xm)
xsm
#> # A tibble: 58 × 11
#>    id        date                  lon   lat      x      y  x.se  y.se logit_g
#>    <chr>     <dttm>              <dbl> <dbl>  <dbl>  <dbl> <dbl> <dbl>   <dbl>
#>  1 ct36-E-09 2009-02-01 17:00:00  72.6 -50.2  8079. -6446.  34.6  20.0   4.10 
#>  2 ct36-E-09 2009-02-04 17:00:00  76.3 -52.1  8492. -6783.  27.2  16.1   4.10 
#>  3 ct36-E-09 2009-02-07 17:00:00  81.8 -54.4  9106. -7209.  41.0  25.6   4.10 
#>  4 ct36-E-09 2009-02-10 17:00:00  86.1 -56.7  9589. -7656.  32.0  18.7   3.12 
#>  5 ct36-E-09 2009-02-13 17:00:00  91.0 -59.1 10130. -8166.  31.9  18.4   3.56 
#>  6 ct36-E-09 2009-02-16 17:00:00  95.5 -61.5 10636. -8705.  25.5  16.1   3.27 
#>  7 ct36-E-09 2009-02-19 17:00:00 101.  -64.2 11228. -9352.  29.9  17.7   3.08 
#>  8 ct36-E-09 2009-02-22 17:00:00 106.  -65.1 11746. -9583.  24.2  18.9   1.03 
#>  9 ct36-E-09 2009-02-25 17:00:00 109.  -65.7 12154. -9747.  17.1  13.7   0.988
#> 10 ct36-E-09 2009-02-28 17:00:00 110.  -66.2 12261. -9893.  23.6  15.5  -0.806
#> # … with 48 more rows, and 2 more variables: logit_g.se <dbl>, g <dbl>
…
