Overview • aniMotum
…
Custom data formats

Users do not need to adhere to the default aniMotum data
formatting presented above, so long as their input data contain the
essential variables. The variables can have arbitrary names and be in
any order. Here is an example using a custom formatted
data.frame of Argos LS data as input:

data(sese2_n)
sese2_n
#> # A tibble: 295 × 5
#>    longitude latitude time                lc    id       
#>        <dbl>    <dbl> <chr>               <fct> <chr>    
#>  1      72.5    -50.2 2009-02-01 17:50:46 A     ct36-E-09
#>  2      73.0    -50.4 2009-02-02 03:30:26 A     ct36-E-09
#>  3      73.8    -50.8 2009-02-02 17:50:48 B     ct36-E-09
#>  4      74.6    -51.2 2009-02-03 07:39:08 A     ct36-E-09
#>  5      74.9    -51.4 2009-02-03 15:29:59 A     ct36-E-09
#>  6      75.5    -51.6 2009-02-04 01:21:08 A     ct36-E-09
#>  7      76.0    -52.2 2009-02-04 16:34:15 A     ct36-E-09
#>  8      76.7    -52.2 2009-02-04 21:05:50 A     ct36-E-09
#>  9      77.0    -52.7 2009-02-05 10:57:22 A     ct36-E-09
#> 10      77.8    -52.8 2009-02-05 16:03:58 A     ct36-E-09
#> # ℹ 285 more rows

Note the columns are in a different order than the default expected
by aniMotum, and the first three variables have different
names: longitude, latitude and
time. There are two approaches to format these data. The
first, is to call format_data as a data pre-processing step
prior to fitting an SSM. The data are linked to the expected names via
the following arguments to format_data: id,
date, lc, coord,
epar and sderr. In this example, we only need
to use the date and coord arguments:

d <- format_data(sese2_n, date = "time", coord = c("longitude", "latitude"))
d
#> # A tibble: 295 × 10
#>    id      date                lc      lon   lat  smaj  smin   eor lonerr laterr
#>    <chr>   <dttm>              <fct> <dbl> <dbl> <dbl> <dbl> <dbl>  <dbl>  <dbl>
#>  1 ct36-E… 2009-02-01 17:50:46 A      72.5 -50.2    NA    NA    NA     NA     NA
#>  2 ct36-E… 2009-02-02 03:30:26 A      73.0 -50.4    NA    NA    NA     NA     NA
#>  3 ct36-E… 2009-02-02 17:50:48 B      73.8 -50.8    NA    NA    NA     NA     NA
#>  4 ct36-E… 2009-02-03 07:39:08 A      74.6 -51.2    NA    NA    NA     NA     NA
#>  5 ct36-E… 2009-02-03 15:29:59 A      74.9 -51.4    NA    NA    NA     NA     NA
#>  6 ct36-E… 2009-02-04 01:21:08 A      75.5 -51.6    NA    NA    NA     NA     NA
#>  7 ct36-E… 2009-02-04 16:34:15 A      76.0 -52.2    NA    NA    NA     NA     NA
#>  8 ct36-E… 2009-02-04 21:05:50 A      76.7 -52.2    NA    NA    NA     NA     NA
#>  9 ct36-E… 2009-02-05 10:57:22 A      77.0 -52.7    NA    NA    NA     NA     NA
#> 10 ct36-E… 2009-02-05 16:03:58 A      77.8 -52.8    NA    NA    NA     NA     NA
#> # ℹ 285 more rows
…
